Lab9/gray_wave.vcd
$date
     Apr 17, 2025       15:17:33
$end

$version
 SystemC 3.0.0-Accellera --- Oct  7 2024 17:21:37
$end

$timescale
     1 ps
$end

$scope module SystemC $end
$var wire    1  aaaaa  clk_i       $end
$var wire    1  aaaab  rst_i       $end
$var wire    3  aaaac  led_o [2:0]  $end
$upscope $end
$enddefinitions  $end

$comment
All initial values are dumped below at time 0 sec = 0 timescale units.
$end

$dumpvars
0aaaaa
1aaaab
b0 aaaac
$end

#10000
0aaaab

#20000
1aaaaa
b1 aaaac

#30000
0aaaaa

#40000
1aaaaa
b11 aaaac

#50000
0aaaaa

#60000
1aaaaa
b10 aaaac

#70000
0aaaaa

#80000
1aaaaa
b110 aaaac

#90000
0aaaaa

#100000
1aaaaa
b111 aaaac

#110000
0aaaaa

#120000
1aaaaa
b101 aaaac

#130000
0aaaaa

#140000
1aaaaa
b100 aaaac

#150000
0aaaaa

#160000
1aaaaa
b0 aaaac

#170000
0aaaaa

#180000
1aaaaa
b1 aaaac

#190000
0aaaaa

#200000
1aaaaa
b11 aaaac

#210000
0aaaaa

#220000
1aaaaa
b10 aaaac

#230000
0aaaaa

#240000
1aaaaa
b110 aaaac

#250000
0aaaaa

#260000
1aaaaa
b111 aaaac

#270000
0aaaaa

#280000
1aaaaa
b101 aaaac

#290000
0aaaaa

#300000
1aaaaa
b100 aaaac

#310000
0aaaaa

#320000
1aaaaa
b0 aaaac

#330000
0aaaaa

#340000
1aaaaa
b1 aaaac

#350000
0aaaaa

#360000
1aaaaa
b11 aaaac

#370000
0aaaaa

#380000
1aaaaa
b10 aaaac

#390000
0aaaaa

#400000
1aaaaa
b110 aaaac

